<?xml version="1.0" encoding="UTF-8"?>
<svg height="128px" viewBox="0 0 128 128" width="128px" xmlns="http://www.w3.org/2000/svg" xmlns:xlink="http://www.w3.org/1999/xlink">
    <filter id="a" height="100%" width="100%" x="0%" y="0%">
        <feColorMatrix in="SourceGraphic" type="matrix" values="0 0 0 0 1 0 0 0 0 1 0 0 0 0 1 0 0 0 1 0"/>
    </filter>
    <mask id="b">
        <g filter="url(#a)">
            <rect fill-opacity="0.1" height="128" width="128"/>
        </g>
    </mask>
    <clipPath id="c">
        <rect height="152" width="192"/>
    </clipPath>
    <path d="m 124 65 c 0 33.136719 -26.863281 60 -60 60 s -60 -26.863281 -60 -60 s 26.863281 -60 60 -60 s 60 26.863281 60 60 z m 0 0" fill="#deddda"/>
    <path d="m 64 7 c 30.929688 0 56 25.070312 56 56 v 2 c 0 30.929688 -25.070312 56 -56 56 c -30.925781 0 -56 -25.070312 -56 -56 v -2 c 0 -30.929688 25.074219 -56 56 -56 z m 0 0" fill="#d5d3cf"/>
    <path d="m 124 63 c 0 33.136719 -26.863281 60 -60 60 s -60 -26.863281 -60 -60 s 26.863281 -60 60 -60 s 60 26.863281 60 60 z m 0 0" fill="#f6f5f4"/>
    <path d="m 10 63 c 0 -29.824219 24.175781 -54 54 -54 s 54 24.175781 54 54 s -24.175781 54 -54 54 s -54 -24.175781 -54 -54 z m 0 0"/>
    <path d="m 64 63.953125 l -24.910156 -26.636718" fill="none" stroke="#2ec326" stroke-linecap="round" stroke-linejoin="round" stroke-width="2.00313"/>
    <path d="m 64.0625 64.105469 l 26.085938 0.632813" fill="none" stroke="#3584ff" stroke-linecap="round" stroke-linejoin="round" stroke-width="4.19506"/>
    <path d="m 56.078125 64 c 0 -4.375 3.546875 -7.921875 7.921875 -7.921875 s 7.925781 3.546875 7.925781 7.921875 s -3.550781 7.921875 -7.925781 7.921875 s -7.921875 -3.546875 -7.921875 -7.921875 z m 0 0" fill="#d5d3cf"/>
    <path d="m 60.4375 64 c 0 -1.96875 1.59375 -3.5625 3.5625 -3.5625 s 3.5625 1.59375 3.5625 3.5625 s -1.59375 3.5625 -3.5625 3.5625 s -3.5625 -1.59375 -3.5625 -3.5625 z m 0 0" fill="#ffffff"/>
    <g clip-path="url(#c)" mask="url(#b)" transform="matrix(1 0 0 1 -8 -16)">
        <path d="m 72 25 c -29.824219 0 -54 24.175781 -54 54 c 0.011719 0.390625 0.023438 0.78125 0.042969 1.171875 c 0.453125 -29.484375 24.472656 -53.152344 53.957031 -53.171875 c 29.355469 0.015625 53.320312 23.480469 53.960938 52.828125 c 0.011718 -0.277344 0.027343 -0.550781 0.039062 -0.828125 c 0 -29.824219 -24.175781 -54 -54 -54 z m 0 0"/>
    </g>
</svg>
